<svg xmlns="http://www.w3.org/2000/svg" width="33" height="40" viewBox="0 0 33 40">
    <path fill="#FFF" fill-rule="evenodd" d="M31.922 5.147h-2.153V1.9a1.9 1.9 0 1 0-3.8 0v3.247h-3.801V1.9a1.9 1.9 0 1 0-3.8 0v3.247h-3.801V1.9a1.9 1.9 0 1 0-3.8 0v3.247H6.965V1.9a1.9 1.9 0 1 0-3.8 0v3.247H1.011a.95.95 0 0 0-.95.95v32.917c0 .525.425.95.95.95h30.91a.95.95 0 0 0 .95-.95V6.097a.95.95 0 0 0-.95-.95zm-5.133 26.151a.733.733 0 0 1-.734.734H6.878a.733.733 0 0 1-.733-.734v-1.513c0-.405.328-.733.733-.733h19.177c.405 0 .734.328.734.733v1.513zm0-8.55a.733.733 0 0 1-.734.733H6.878a.733.733 0 0 1-.733-.734v-1.513c0-.405.328-.733.733-.733h19.177c.405 0 .734.328.734.733v1.513zm0-8.552a.733.733 0 0 1-.734.734H6.878a.733.733 0 0 1-.733-.734v-1.513c0-.405.328-.733.733-.733h19.177c.405 0 .734.328.734.733v1.513z"/>
</svg>
